…
We can calculate the LD matrix of a full region, max 1 Mb wide. Because of my poor computer, we limit it to +/- 100 kb.

## 
## example: ext <- "/ld/human/region/6:25837556..25843455/1000GENOMES:phase_3:KHV?"
## Query region. A maximum of 1Mb is allowed.

ext <- glue::glue("/ld/human/region/{sel.chr}:{sel.pos - range/10}..{sel.pos + range/10}/1000GENOMES:phase_3:EUR?")

r <- GET(paste(server, ext, sep = ""), content_type("application/json"))
stop_for_status(r)
LD.matrix <- as_tibble(fromJSON(toJSON(content(r)))) %>% unnest()
LD.matrix

## # A tibble: 31,874 x 5
##    d_prime  variation1  r2       population_name         variation2 
##    <chr>    <chr>       <chr>    <chr>                   <chr>      
##  1 0.999997 rs187861164 0.062722 1000GENOMES:phase_3:EUR rs17819063 
##  2 0.874781 rs7202116   0.105426 1000GENOMES:phase_3:EUR rs2042029  
##  3 0.319707 rs7184874   0.101807 1000GENOMES:phase_3:EUR rs11075987 
##  4 0.375980 rs67019605  0.068003 1000GENOMES:phase_3:EUR rs9972653  
##  5 0.979166 rs5816906   0.811196 1000GENOMES:phase_3:EUR rs139927805
##  6 0.450822 rs62048378  0.086526 1000GENOMES:phase_3:EUR rs62048379 
##  7 0.926130 rs8049664   0.353682 1000GENOMES:phase_3:EUR rs1965022  
##  8 0.396841 rs1861868   0.115341 1000GENOMES:phase_3:EUR rs9933040  
##  9 0.866824 rs7184573   0.576935 1000GENOMES:phase_3:EUR rs6499652  
## 10 0.899848 rs535698445 0.053866 1000GENOMES:phase_3:EUR rs61222151 
## # ... with 31,864 more rows
…
